[
  {
    "id":"1",
    "name":"Annual Leave"
  },
  {
    "id":"2",
    "name":"Sick Leave"
  },
  {
    "id":"3",
    "name":"Leave with out Pay"
  },
  {
    "id":"4",
    "name":"Other types of Leaves"
  }
]